%!PS-Adobe-2.0 EPSF-1.2
%%Creator: MATLAB, The Mathworks, Inc. Version 7.8.0.347 (R2009a). Operating System: Darwin 9.8.0 Darwin Kernel Version 9.8.0: Wed Jul 15 16:55:01 PDT 2009; root:xnu-1228.15.4~1/RELEASE_I386 i386.
%%Title: ../images/grid.eps
%%CreationDate: 10/02/2009  14:31:41
%%DocumentNeededFonts: Helvetica
%%DocumentProcessColors: Cyan Magenta Yellow Black
%%Pages: 1
%%BoundingBox:   140   231   485   576
%%EndComments

%%BeginProlog
% MathWorks dictionary
/MathWorks 160 dict begin
% definition operators
/bdef {bind def} bind def
/ldef {load def} bind def
/xdef {exch def} bdef
/xstore {exch store} bdef
% operator abbreviations
/c  /clip ldef
/cc /concat ldef
/cp /closepath ldef
/gr /grestore ldef
/gs /gsave ldef
/mt /moveto ldef
/np /newpath ldef
/cm /currentmatrix ldef
/sm /setmatrix ldef
/rm /rmoveto ldef
/rl /rlineto ldef
/s {show newpath} bdef
/sc {setcmykcolor} bdef
/sr /setrgbcolor ldef
/sg /setgray ldef
/w /setlinewidth ldef
/j /setlinejoin ldef
/cap /setlinecap ldef
/rc {rectclip} bdef
/rf {rectfill} bdef
% page state control
/pgsv () def
/bpage {/pgsv save def} bdef
/epage {pgsv restore} bdef
/bplot /gsave ldef
/eplot {stroke grestore} bdef
% orientation switch
/portraitMode 0 def /landscapeMode 1 def /rotateMode 2 def
% coordinate system mappings
/dpi2point 0 def
% font control
/FontSize 0 def
/FMS {/FontSize xstore findfont [FontSize 0 0 FontSize neg 0 0]
  makefont setfont} bdef
/reencode {exch dup where {pop load} {pop StandardEncoding} ifelse
  exch dup 3 1 roll findfont dup length dict begin
  { 1 index /FID ne {def}{pop pop} ifelse } forall
  /Encoding exch def currentdict end definefont pop} bdef
/isroman {findfont /CharStrings get /Agrave known} bdef
/FMSR {3 1 roll 1 index dup isroman {reencode} {pop pop} ifelse
  exch FMS} bdef
/csm {1 dpi2point div -1 dpi2point div scale neg translate
 dup landscapeMode eq {pop -90 rotate}
  {rotateMode eq {90 rotate} if} ifelse} bdef
% line types: solid, dotted, dashed, dotdash
/SO { [] 0 setdash } bdef
/DO { [.5 dpi2point mul 4 dpi2point mul] 0 setdash } bdef
/DA { [6 dpi2point mul] 0 setdash } bdef
/DD { [.5 dpi2point mul 4 dpi2point mul 6 dpi2point mul 4
  dpi2point mul] 0 setdash } bdef
% macros for lines and objects
/L {lineto stroke} bdef
/MP {3 1 roll moveto 1 sub {rlineto} repeat} bdef
/AP {{rlineto} repeat} bdef
/PDlw -1 def
/W {/PDlw currentlinewidth def setlinewidth} def
/PP {closepath eofill} bdef
/DP {closepath stroke} bdef
/MR {4 -2 roll moveto dup  0 exch rlineto exch 0 rlineto
  neg 0 exch rlineto closepath} bdef
/FR {MR stroke} bdef
/PR {MR fill} bdef
/L1i {{currentfile picstr readhexstring pop} image} bdef
/tMatrix matrix def
/MakeOval {newpath tMatrix currentmatrix pop translate scale
0 0 1 0 360 arc tMatrix setmatrix} bdef
/FO {MakeOval stroke} bdef
/PO {MakeOval fill} bdef
/PD {currentlinewidth 2 div 0 360 arc fill
   PDlw -1 eq not {PDlw w /PDlw -1 def} if} def
/FA {newpath tMatrix currentmatrix pop translate scale
  0 0 1 5 -2 roll arc tMatrix setmatrix stroke} bdef
/PA {newpath tMatrix currentmatrix pop	translate 0 0 moveto scale
  0 0 1 5 -2 roll arc closepath tMatrix setmatrix fill} bdef
/FAn {newpath tMatrix currentmatrix pop translate scale
  0 0 1 5 -2 roll arcn tMatrix setmatrix stroke} bdef
/PAn {newpath tMatrix currentmatrix pop translate 0 0 moveto scale
  0 0 1 5 -2 roll arcn closepath tMatrix setmatrix fill} bdef
/vradius 0 def /hradius 0 def /lry 0 def
/lrx 0 def /uly 0 def /ulx 0 def /rad 0 def
/MRR {/vradius xdef /hradius xdef /lry xdef /lrx xdef /uly xdef
  /ulx xdef newpath tMatrix currentmatrix pop ulx hradius add uly
  vradius add translate hradius vradius scale 0 0 1 180 270 arc 
  tMatrix setmatrix lrx hradius sub uly vradius add translate
  hradius vradius scale 0 0 1 270 360 arc tMatrix setmatrix
  lrx hradius sub lry vradius sub translate hradius vradius scale
  0 0 1 0 90 arc tMatrix setmatrix ulx hradius add lry vradius sub
  translate hradius vradius scale 0 0 1 90 180 arc tMatrix setmatrix
  closepath} bdef
/FRR {MRR stroke } bdef
/PRR {MRR fill } bdef
/MlrRR {/lry xdef /lrx xdef /uly xdef /ulx xdef /rad lry uly sub 2 div def
  newpath tMatrix currentmatrix pop ulx rad add uly rad add translate
  rad rad scale 0 0 1 90 270 arc tMatrix setmatrix lrx rad sub lry rad
  sub translate rad rad scale 0 0 1 270 90 arc tMatrix setmatrix
  closepath} bdef
/FlrRR {MlrRR stroke } bdef
/PlrRR {MlrRR fill } bdef
/MtbRR {/lry xdef /lrx xdef /uly xdef /ulx xdef /rad lrx ulx sub 2 div def
  newpath tMatrix currentmatrix pop ulx rad add uly rad add translate
  rad rad scale 0 0 1 180 360 arc tMatrix setmatrix lrx rad sub lry rad
  sub translate rad rad scale 0 0 1 0 180 arc tMatrix setmatrix
  closepath} bdef
/FtbRR {MtbRR stroke } bdef
/PtbRR {MtbRR fill } bdef
/stri 6 array def /dtri 6 array def
/smat 6 array def /dmat 6 array def
/tmat1 6 array def /tmat2 6 array def /dif 3 array def
/asub {/ind2 exch def /ind1 exch def dup dup
  ind1 get exch ind2 get sub exch } bdef
/tri_to_matrix {
  2 0 asub 3 1 asub 4 0 asub 5 1 asub
  dup 0 get exch 1 get 7 -1 roll astore } bdef
/compute_transform {
  dmat dtri tri_to_matrix tmat1 invertmatrix 
  smat stri tri_to_matrix tmat2 concatmatrix } bdef
/ds {stri astore pop} bdef
/dt {dtri astore pop} bdef
/db {2 copy /cols xdef /rows xdef mul dup string
  currentfile exch readhexstring pop
  /bmap xdef pop pop} bdef
/it {gs np dtri aload pop moveto lineto lineto cp c
  cols rows 8 compute_transform 
  {bmap} image gr}bdef
/il {newpath moveto lineto stroke}bdef
currentdict end def
%%EndProlog

%%BeginSetup
MathWorks begin

0 cap

end
%%EndSetup

%%Page: 1 1
%%BeginPageSetup
%%PageBoundingBox:   140   231   485   576
MathWorks begin
bpage
%%EndPageSetup

%%BeginObject: obj1
bplot

/dpi2point 12 def
portraitMode 0216 7344 csm

 1471   429  4135  4135 MR c np
85 dict begin %Colortable dictionary
/c0 { 0.000000 0.000000 0.000000 sr} bdef
/c1 { 1.000000 1.000000 1.000000 sr} bdef
/c2 { 0.900000 0.000000 0.000000 sr} bdef
/c3 { 0.000000 0.820000 0.000000 sr} bdef
/c4 { 0.000000 0.000000 0.800000 sr} bdef
/c5 { 0.910000 0.820000 0.320000 sr} bdef
/c6 { 1.000000 0.260000 0.820000 sr} bdef
/c7 { 0.000000 0.820000 0.820000 sr} bdef
c0
1 j
1 sg
   0    0 6913 5186 PR
6 w
gs 898 389 5358 4226 MR c np
0 sg
0 -13 1 -13 0 -13 1 -13 1 -13 1 -14 1 -13 2 -13 
2 -13 2 -13 2 -13 2 -13 3 -13 3 -13 3 -13 3 -12 
3 -13 4 -13 4 -13 4 -12 4 -13 4 -12 5 -12 4 -13 
5 -12 6 -12 5 -12 6 -12 5 -12 6 -12 6 -12 7 -11 
6 -12 7 -11 6 -11 7 -12 8 -11 7 -11 8 -10 7 -11 
8 -11 8 -10 8 -11 9 -10 8 -10 9 -10 9 -10 9 -9 
9 -10 9 -9 9 -10 10 -9 10 -9 10 -8 10 -9 10 -8 
10 -9 10 -8 11 -8 10 -8 11 -7 11 -8 11 -7 11 -7 
11 -7 12 -7 11 -7 12 -6 11 -6 12 -6 12 -6 12 -6 
12 -5 12 -6 12 -5 12 -5 13 -4 12 -5 12 -4 13 -4 
13 -4 12 -4 13 -4 13 -3 13 -3 12 -3 13 -3 13 -2 
13 -3 13 -2 13 -2 13 -1 14 -2 13 -1 13 -1 13 -1 
13 -1 13 0 14 -1 3542 3340 100 MP stroke
13 0 13 1 13 0 13 0 14 1 13 1 13 1 13 2 
13 1 13 2 13 2 13 2 13 3 13 3 13 2 13 3 
13 4 12 3 13 4 13 4 12 4 13 4 12 4 13 5 
12 5 12 5 12 5 12 5 12 6 12 6 12 6 12 6 
11 6 12 7 11 6 11 7 11 7 11 7 11 8 11 7 
11 8 10 8 11 8 10 8 10 9 10 8 10 9 10 9 
10 9 9 9 10 9 9 10 9 9 9 10 9 10 8 10 
9 10 8 10 8 11 8 10 8 11 7 11 8 11 7 11 
7 11 7 11 7 12 6 11 7 12 6 11 6 12 6 12 
5 12 6 12 5 12 5 12 5 12 5 13 4 12 4 13 
4 12 4 13 4 12 4 13 3 13 3 13 3 13 2 13 
3 13 2 13 2 13 2 13 2 13 1 13 2 13 1 13 
0 13 1 14 0 13 2695 2521 100 MP stroke
1 13 0 13 -1 13 0 13 -1 14 0 13 -1 13 -2 13 
-1 13 -2 13 -2 13 -2 13 -2 13 -3 13 -2 13 -3 13 
-3 13 -3 13 -4 13 -4 12 -4 13 -4 12 -4 13 -4 12 
-5 13 -5 12 -5 12 -5 12 -6 12 -5 12 -6 12 -6 12 
-6 11 -7 12 -6 11 -7 12 -7 11 -7 11 -7 11 -8 11 
-7 11 -8 11 -8 10 -8 11 -8 10 -9 10 -8 10 -9 10 
-9 10 -9 9 -9 10 -10 9 -9 9 -10 9 -10 9 -10 9 
-10 8 -10 9 -10 8 -11 8 -10 8 -11 8 -11 7 -11 8 
-11 7 -11 7 -11 7 -11 6 -12 7 -11 6 -12 6 -12 6 
-12 6 -12 6 -12 5 -12 5 -12 5 -12 5 -13 5 -12 4 
-13 4 -12 4 -13 4 -13 4 -12 3 -13 4 -13 3 -13 2 
-13 3 -13 3 -13 2 -13 2 -13 2 -13 1 -13 2 -13 1 
-13 1 -14 1 -13 0 3503 1664 100 MP stroke
-13 0 -13 1 -13 0 -14 -1 -13 0 -13 -1 -13 -1 -13 -1 
-13 -1 -14 -2 -13 -1 -13 -2 -13 -2 -13 -3 -13 -2 -13 -3 
-12 -3 -13 -3 -13 -3 -13 -4 -12 -4 -13 -4 -13 -4 -12 -4 
-12 -5 -13 -4 -12 -5 -12 -5 -12 -6 -12 -5 -12 -6 -12 -6 
-12 -6 -11 -6 -12 -6 -11 -7 -12 -7 -11 -7 -11 -7 -11 -7 
-11 -8 -11 -7 -10 -8 -11 -8 -10 -8 -10 -9 -10 -8 -10 -9 
-10 -8 -10 -9 -10 -9 -9 -10 -9 -9 -9 -10 -9 -9 -9 -10 
-9 -10 -8 -10 -9 -10 -8 -11 -8 -10 -8 -11 -7 -11 -8 -10 
-7 -11 -8 -11 -7 -12 -6 -11 -7 -11 -6 -12 -7 -11 -6 -12 
-6 -12 -5 -12 -6 -12 -5 -12 -6 -12 -5 -12 -4 -13 -5 -12 
-4 -12 -4 -13 -4 -12 -4 -13 -4 -13 -3 -13 -3 -12 -3 -13 
-3 -13 -3 -13 -2 -13 -2 -13 -2 -13 -2 -13 -2 -13 -1 -13 
-1 -14 -1 -13 -1 -13 4370 2462 100 MP stroke
0 -13 -1 -13 0 -14 4371 2502 4 MP stroke
0 -26 1 -26 1 -27 2 -26 1 -26 3 -27 2 -26 3 -26 
4 -26 4 -26 4 -26 5 -26 5 -26 6 -26 6 -26 6 -25 
7 -26 7 -25 8 -26 8 -25 8 -25 9 -25 9 -24 9 -25 
10 -25 11 -24 10 -24 12 -24 11 -24 12 -23 12 -24 13 -23 
12 -23 14 -23 13 -22 14 -23 15 -22 14 -22 16 -21 15 -22 
16 -21 16 -21 16 -21 17 -20 17 -20 17 -20 18 -20 18 -19 
18 -19 19 -19 18 -19 19 -18 20 -18 20 -17 20 -18 20 -16 
20 -17 21 -16 21 -16 21 -16 22 -15 22 -15 22 -15 22 -14 
22 -14 23 -14 23 -13 23 -13 23 -12 24 -12 23 -12 24 -11 
24 -11 24 -11 25 -10 24 -10 25 -9 25 -9 24 -9 26 -8 
25 -8 25 -8 25 -7 26 -7 26 -6 25 -6 26 -5 26 -5 
26 -5 26 -4 26 -4 26 -3 27 -3 26 -3 26 -2 27 -2 
26 -1 26 -1 27 -1 3552 4178 100 MP stroke
26 0 26 1 27 0 26 1 27 2 26 2 26 2 26 3 
27 3 26 4 26 4 26 4 26 5 26 6 26 5 25 6 
26 7 25 7 26 7 25 8 25 8 25 8 25 9 25 9 
24 10 25 10 24 10 24 11 24 11 24 12 23 12 24 12 
23 13 23 13 22 13 23 14 22 14 22 14 22 15 22 15 
21 16 21 16 21 16 21 16 20 17 20 17 20 17 20 18 
19 18 19 19 19 18 18 19 18 19 18 20 18 20 17 20 
17 20 16 20 16 21 16 21 16 22 15 21 15 22 14 22 
15 22 13 23 14 23 13 23 13 23 12 23 12 23 12 24 
11 24 11 24 10 24 11 25 9 24 10 25 9 25 8 25 
8 25 8 25 8 25 7 26 6 25 6 26 6 26 5 26 
5 26 5 26 4 26 4 26 3 26 3 26 3 26 2 27 
1 26 2 27 0 26 1857 2541 100 MP stroke
1 26 0 27 -1 26 0 26 -2 27 -1 26 -2 27 -3 26 
-3 26 -3 26 -4 26 -4 26 -5 26 -5 26 -5 26 -6 26 
-6 26 -6 25 -7 26 -8 25 -8 25 -8 25 -8 25 -9 25 
-10 25 -9 24 -11 25 -10 24 -11 24 -11 24 -12 24 -12 23 
-12 23 -13 23 -13 23 -14 23 -13 23 -15 22 -14 22 -15 22 
-15 21 -16 22 -16 21 -16 21 -16 20 -17 20 -17 20 -18 20 
-18 20 -18 19 -18 19 -19 18 -19 19 -19 18 -20 18 -20 17 
-20 17 -20 17 -21 16 -21 16 -21 16 -21 16 -22 15 -22 15 
-22 14 -22 14 -23 14 -22 13 -23 13 -23 13 -24 12 -23 12 
-24 12 -24 11 -24 11 -24 10 -25 10 -24 10 -25 9 -25 9 
-25 8 -25 8 -25 8 -26 7 -25 7 -26 7 -25 6 -26 5 
-26 6 -26 5 -26 4 -26 4 -26 4 -27 3 -26 3 -26 2 
-26 2 -27 2 -26 1 3473 826 100 MP stroke
-27 0 -26 1 -26 0 -27 -1 -26 -1 -26 -1 -27 -2 -26 -2 
-26 -3 -27 -3 -26 -3 -26 -4 -26 -4 -26 -5 -26 -5 -26 -5 
-25 -6 -26 -6 -26 -7 -25 -7 -25 -8 -25 -8 -26 -8 -24 -9 
-25 -9 -25 -9 -24 -10 -25 -10 -24 -11 -24 -11 -24 -11 -23 -12 
-24 -12 -23 -12 -23 -13 -23 -13 -23 -14 -22 -14 -22 -14 -22 -15 
-22 -15 -22 -15 -21 -16 -21 -16 -21 -16 -20 -17 -20 -16 -20 -18 
-20 -17 -20 -18 -19 -18 -18 -19 -19 -19 -18 -19 -18 -19 -18 -20 
-17 -20 -17 -20 -17 -20 -16 -21 -16 -21 -16 -21 -15 -22 -16 -21 
-14 -22 -15 -22 -14 -23 -13 -22 -14 -23 -12 -23 -13 -23 -12 -24 
-12 -23 -11 -24 -12 -24 -10 -24 -11 -24 -10 -25 -9 -25 -9 -24 
-9 -25 -8 -25 -8 -25 -8 -26 -7 -25 -7 -26 -6 -25 -6 -26 
-6 -26 -5 -26 -5 -26 -4 -26 -4 -26 -4 -26 -3 -26 -2 -26 
-3 -27 -1 -26 -2 -26 5207 2422 100 MP stroke
-1 -27 -1 -26 0 -27 5209 2502 4 MP stroke
0 -3521 3521 0 0 3521 -3521 0 5293 741 5 MP stroke
3961 0 1596 2502 2 MP stroke
0 -3961 3532 4438 2 MP stroke
-41 88 3532 477 2 MP stroke
42 88 3532 477 2 MP stroke
-88 41 5557 2502 2 MP stroke
-88 -42 5557 2502 2 MP stroke
gs 1471 1320 603 3244 MR c np
100 W
1772 4262 PD
100 W
1772 3382 PD
100 W
1772 2502 PD
100 W
1772 1621 PD
gr

gs 2351 1320 603 3244 MR c np
100 W
2652 4262 PD
100 W
2652 3382 PD
100 W
2652 2502 PD
100 W
2652 1621 PD
gr

gs 3231 1320 603 3244 MR c np
100 W
3532 4262 PD
100 W
3532 3382 PD
100 W
3532 2502 PD
100 W
3532 1621 PD
gr

gs 4112 1320 603 3244 MR c np
100 W
4413 4262 PD
100 W
4413 3382 PD
100 W
4413 2502 PD
100 W
4413 1621 PD
gr

gr

0 sg

end %%Color Dict

eplot
%%EndObject

epage
end

showpage

%%Trailer
%%EOF
