%!PS-Adobe-3.0 EPSF-3.0
%%Creator: (MATLAB, The Mathworks, Inc. Version 9.5.0.944444 \(R2018b\). Operating System: Windows 10)
%%Title: (//nvs2.uni-rostock.de/elainedata/Elektroimpedanztomografie/EIT Book 2019/Images/EigeneBilder/Bolus.eps)
%%CreationDate: 2019-11-26T17:32:47
%%Pages: (atend)
%%BoundingBox: 0 0 601 322
%%LanguageLevel: 3
%%EndComments
%%BeginProlog
%%BeginResource: procset (Apache XML Graphics Std ProcSet) 1.2 0
%%Version: 1.2 0
%%Copyright: (Copyright 2001-2003,2010 The Apache Software Foundation. License terms: http://www.apache.org/licenses/LICENSE-2.0)
/bd{bind def}bind def
/ld{load def}bd
/GR/grestore ld
/GS/gsave ld
/RM/rmoveto ld
/C/curveto ld
/t/show ld
/L/lineto ld
/ML/setmiterlimit ld
/CT/concat ld
/f/fill ld
/N/newpath ld
/S/stroke ld
/CC/setcmykcolor ld
/A/ashow ld
/cp/closepath ld
/RC/setrgbcolor ld
/LJ/setlinejoin ld
/GC/setgray ld
/LW/setlinewidth ld
/M/moveto ld
/re {4 2 roll M
1 index 0 rlineto
0 exch rlineto
neg 0 rlineto
cp } bd
/_ctm matrix def
/_tm matrix def
/BT { _ctm currentmatrix pop matrix _tm copy pop 0 0 moveto } bd
/ET { _ctm setmatrix } bd
/iTm { _ctm setmatrix _tm concat } bd
/Tm { _tm astore pop iTm 0 0 moveto } bd
/ux 0.0 def
/uy 0.0 def
/F {
  /Tp exch def
  /Tf exch def
  Tf findfont Tp scalefont setfont
  /cf Tf def  /cs Tp def
} bd
/ULS {currentpoint /uy exch def /ux exch def} bd
/ULE {
  /Tcx currentpoint pop def
  gsave
  newpath
  cf findfont cs scalefont dup
  /FontMatrix get 0 get /Ts exch def /FontInfo get dup
  /UnderlinePosition get Ts mul /To exch def
  /UnderlineThickness get Ts mul /Tt exch def
  ux uy To add moveto  Tcx uy To add lineto
  Tt setlinewidth stroke
  grestore
} bd
/OLE {
  /Tcx currentpoint pop def
  gsave
  newpath
  cf findfont cs scalefont dup
  /FontMatrix get 0 get /Ts exch def /FontInfo get dup
  /UnderlinePosition get Ts mul /To exch def
  /UnderlineThickness get Ts mul /Tt exch def
  ux uy To add cs add moveto Tcx uy To add cs add lineto
  Tt setlinewidth stroke
  grestore
} bd
/SOE {
  /Tcx currentpoint pop def
  gsave
  newpath
  cf findfont cs scalefont dup
  /FontMatrix get 0 get /Ts exch def /FontInfo get dup
  /UnderlinePosition get Ts mul /To exch def
  /UnderlineThickness get Ts mul /Tt exch def
  ux uy To add cs 10 mul 26 idiv add moveto Tcx uy To add cs 10 mul 26 idiv add lineto
  Tt setlinewidth stroke
  grestore
} bd
/QT {
/Y22 exch store
/X22 exch store
/Y21 exch store
/X21 exch store
currentpoint
/Y21 load 2 mul add 3 div exch
/X21 load 2 mul add 3 div exch
/X21 load 2 mul /X22 load add 3 div
/Y21 load 2 mul /Y22 load add 3 div
/X22 load /Y22 load curveto
} bd
/SSPD {
dup length /d exch dict def
{
/v exch def
/k exch def
currentpagedevice k known {
/cpdv currentpagedevice k get def
v cpdv ne {
/upd false def
/nullv v type /nulltype eq def
/nullcpdv cpdv type /nulltype eq def
nullv nullcpdv or
{
/upd true def
} {
/sametype v type cpdv type eq def
sametype {
v type /arraytype eq {
/vlen v length def
/cpdvlen cpdv length def
vlen cpdvlen eq {
0 1 vlen 1 sub {
/i exch def
/obj v i get def
/cpdobj cpdv i get def
obj cpdobj ne {
/upd true def
exit
} if
} for
} {
/upd true def
} ifelse
} {
v type /dicttype eq {
v {
/dv exch def
/dk exch def
/cpddv cpdv dk get def
dv cpddv ne {
/upd true def
exit
} if
} forall
} {
/upd true def
} ifelse
} ifelse
} if
} ifelse
upd true eq {
d k v put
} if
} if
} if
} forall
d length 0 gt {
d setpagedevice
} if
} bd
/RE { % /NewFontName [NewEncodingArray] /FontName RE -
  findfont dup length dict begin
  {
    1 index /FID ne
    {def} {pop pop} ifelse
  } forall
  /Encoding exch def
  /FontName 1 index def
  currentdict definefont pop
  end
} bind def
%%EndResource
%%BeginResource: procset (Apache XML Graphics EPS ProcSet) 1.0 0
%%Version: 1.0 0
%%Copyright: (Copyright 2002-2003 The Apache Software Foundation. License terms: http://www.apache.org/licenses/LICENSE-2.0)
/BeginEPSF { %def
/b4_Inc_state save def         % Save state for cleanup
/dict_count countdictstack def % Count objects on dict stack
/op_count count 1 sub def      % Count objects on operand stack
userdict begin                 % Push userdict on dict stack
/showpage { } def              % Redefine showpage, { } = null proc
0 setgray 0 setlinecap         % Prepare graphics state
1 setlinewidth 0 setlinejoin
10 setmiterlimit [ ] 0 setdash newpath
/languagelevel where           % If level not equal to 1 then
{pop languagelevel             % set strokeadjust and
1 ne                           % overprint to their defaults.
{false setstrokeadjust false setoverprint
} if
} if
} bd
/EndEPSF { %def
count op_count sub {pop} repeat            % Clean up stacks
countdictstack dict_count sub {end} repeat
b4_Inc_state restore
} bd
%%EndResource
%FOPBeginFontDict
%%IncludeResource: font Courier-Oblique
%%IncludeResource: font Courier-BoldOblique
%%IncludeResource: font Courier-Bold
%%IncludeResource: font ZapfDingbats
%%IncludeResource: font Symbol
%%IncludeResource: font Helvetica
%%IncludeResource: font Helvetica-Oblique
%%IncludeResource: font Helvetica-Bold
%%IncludeResource: font Helvetica-BoldOblique
%%IncludeResource: font Times-Roman
%%IncludeResource: font Times-Italic
%%IncludeResource: font Times-Bold
%%IncludeResource: font Times-BoldItalic
%%IncludeResource: font Courier
%FOPEndFontDict
%%BeginResource: encoding WinAnsiEncoding
/WinAnsiEncoding [
/.notdef /.notdef /.notdef /.notdef /.notdef
/.notdef /.notdef /.notdef /.notdef /.notdef
/.notdef /.notdef /.notdef /.notdef /.notdef
/.notdef /.notdef /.notdef /.notdef /.notdef
/.notdef /.notdef /.notdef /.notdef /.notdef
/.notdef /.notdef /.notdef /.notdef /.notdef
/.notdef /.notdef /space /exclam /quotedbl
/numbersign /dollar /percent /ampersand /quotesingle
/parenleft /parenright /asterisk /plus /comma
/hyphen /period /slash /zero /one
/two /three /four /five /six
/seven /eight /nine /colon /semicolon
/less /equal /greater /question /at
/A /B /C /D /E
/F /G /H /I /J
/K /L /M /N /O
/P /Q /R /S /T
/U /V /W /X /Y
/Z /bracketleft /backslash /bracketright /asciicircum
/underscore /quoteleft /a /b /c
/d /e /f /g /h
/i /j /k /l /m
/n /o /p /q /r
/s /t /u /v /w
/x /y /z /braceleft /bar
/braceright /asciitilde /bullet /Euro /bullet
/quotesinglbase /florin /quotedblbase /ellipsis /dagger
/daggerdbl /circumflex /perthousand /Scaron /guilsinglleft
/OE /bullet /Zcaron /bullet /bullet
/quoteleft /quoteright /quotedblleft /quotedblright /bullet
/endash /emdash /asciitilde /trademark /scaron
/guilsinglright /oe /bullet /zcaron /Ydieresis
/space /exclamdown /cent /sterling /currency
/yen /brokenbar /section /dieresis /copyright
/ordfeminine /guillemotleft /logicalnot /sfthyphen /registered
/macron /degree /plusminus /twosuperior /threesuperior
/acute /mu /paragraph /middot /cedilla
/onesuperior /ordmasculine /guillemotright /onequarter /onehalf
/threequarters /questiondown /Agrave /Aacute /Acircumflex
/Atilde /Adieresis /Aring /AE /Ccedilla
/Egrave /Eacute /Ecircumflex /Edieresis /Igrave
/Iacute /Icircumflex /Idieresis /Eth /Ntilde
/Ograve /Oacute /Ocircumflex /Otilde /Odieresis
/multiply /Oslash /Ugrave /Uacute /Ucircumflex
/Udieresis /Yacute /Thorn /germandbls /agrave
/aacute /acircumflex /atilde /adieresis /aring
/ae /ccedilla /egrave /eacute /ecircumflex
/edieresis /igrave /iacute /icircumflex /idieresis
/eth /ntilde /ograve /oacute /ocircumflex
/otilde /odieresis /divide /oslash /ugrave
/uacute /ucircumflex /udieresis /yacute /thorn
/ydieresis
] def
%%EndResource
%FOPBeginFontReencode
/Courier-Oblique findfont
dup length dict begin
  {1 index /FID ne {def} {pop pop} ifelse} forall
  /Encoding WinAnsiEncoding def
  currentdict
end
/Courier-Oblique exch definefont pop
/Courier-BoldOblique findfont
dup length dict begin
  {1 index /FID ne {def} {pop pop} ifelse} forall
  /Encoding WinAnsiEncoding def
  currentdict
end
/Courier-BoldOblique exch definefont pop
/Courier-Bold findfont
dup length dict begin
  {1 index /FID ne {def} {pop pop} ifelse} forall
  /Encoding WinAnsiEncoding def
  currentdict
end
/Courier-Bold exch definefont pop
/Helvetica findfont
dup length dict begin
  {1 index /FID ne {def} {pop pop} ifelse} forall
  /Encoding WinAnsiEncoding def
  currentdict
end
/Helvetica exch definefont pop
/Helvetica-Oblique findfont
dup length dict begin
  {1 index /FID ne {def} {pop pop} ifelse} forall
  /Encoding WinAnsiEncoding def
  currentdict
end
/Helvetica-Oblique exch definefont pop
/Helvetica-Bold findfont
dup length dict begin
  {1 index /FID ne {def} {pop pop} ifelse} forall
  /Encoding WinAnsiEncoding def
  currentdict
end
/Helvetica-Bold exch definefont pop
/Helvetica-BoldOblique findfont
dup length dict begin
  {1 index /FID ne {def} {pop pop} ifelse} forall
  /Encoding WinAnsiEncoding def
  currentdict
end
/Helvetica-BoldOblique exch definefont pop
/Times-Roman findfont
dup length dict begin
  {1 index /FID ne {def} {pop pop} ifelse} forall
  /Encoding WinAnsiEncoding def
  currentdict
end
/Times-Roman exch definefont pop
/Times-Italic findfont
dup length dict begin
  {1 index /FID ne {def} {pop pop} ifelse} forall
  /Encoding WinAnsiEncoding def
  currentdict
end
/Times-Italic exch definefont pop
/Times-Bold findfont
dup length dict begin
  {1 index /FID ne {def} {pop pop} ifelse} forall
  /Encoding WinAnsiEncoding def
  currentdict
end
/Times-Bold exch definefont pop
/Times-BoldItalic findfont
dup length dict begin
  {1 index /FID ne {def} {pop pop} ifelse} forall
  /Encoding WinAnsiEncoding def
  currentdict
end
/Times-BoldItalic exch definefont pop
/Courier findfont
dup length dict begin
  {1 index /FID ne {def} {pop pop} ifelse} forall
  /Encoding WinAnsiEncoding def
  currentdict
end
/Courier exch definefont pop
%FOPEndFontReencode
%%EndProlog
%%Page: 1 1
%%PageBoundingBox: 0 0 601 322
%%BeginPageSetup
[1 0 0 -1 0 322] CT
%%EndPageSetup
GS
[0.60015 0 0 0.60028 0 -0.34998] CT
1 GC
N
0 0 1001 537 re
f
GR
GS
[0.60015 0 0 0.60028 0 -0.34998] CT
1 GC
N
0 0 1001 537 re
f
GR
GS
[0.60015 0 0 0.60028 0 -0.34998] CT
1 GC
N
130 457 M
906 457 L
906 40 L
130 40 L
cp
f
GR
GS
[0.60015 0 0 0.60028 0 -0.34998] CT
0.149 GC
2 setlinecap
1 LJ
0.833 LW
N
130 457 M
906 457 L
S
GR
GS
[0.60015 0 0 0.60028 0 -0.34998] CT
0.149 GC
2 setlinecap
1 LJ
0.833 LW
N
130 457 M
130 449.24 L
S
GR
GS
[0.60015 0 0 0.60028 0 -0.34998] CT
0.149 GC
2 setlinecap
1 LJ
0.833 LW
N
240.857 457 M
240.857 449.24 L
S
GR
GS
[0.60015 0 0 0.60028 0 -0.34998] CT
0.149 GC
2 setlinecap
1 LJ
0.833 LW
N
351.714 457 M
351.714 449.24 L
S
GR
GS
[0.60015 0 0 0.60028 0 -0.34998] CT
0.149 GC
2 setlinecap
1 LJ
0.833 LW
N
462.571 457 M
462.571 449.24 L
S
GR
GS
[0.60015 0 0 0.60028 0 -0.34998] CT
0.149 GC
2 setlinecap
1 LJ
0.833 LW
N
573.429 457 M
573.429 449.24 L
S
GR
GS
[0.60015 0 0 0.60028 0 -0.34998] CT
0.149 GC
2 setlinecap
1 LJ
0.833 LW
N
684.286 457 M
684.286 449.24 L
S
GR
GS
[0.60015 0 0 0.60028 0 -0.34998] CT
0.149 GC
2 setlinecap
1 LJ
0.833 LW
N
795.143 457 M
795.143 449.24 L
S
GR
GS
[0.60015 0 0 0.60028 0 -0.34998] CT
0.149 GC
2 setlinecap
1 LJ
0.833 LW
N
906 457 M
906 449.24 L
S
GR
GS
[0.60015 0 0 0.60028 78.01948 279.18007] CT
0.149 GC
/Helvetica 26.667 F
GS
[1 0 0 1 0 0] CT
-7.5 27 moveto 
1 -1 scale
(0) t 
GR
GR
GS
[0.60015 0 0 0.60028 144.55038 279.18007] CT
0.149 GC
/Helvetica 26.667 F
GS
[1 0 0 1 0 0] CT
-7.5 27 moveto 
1 -1 scale
(5) t 
GR
GR
GS
[0.60015 0 0 0.60028 211.08128 279.18007] CT
0.149 GC
/Helvetica 26.667 F
GS
[1 0 0 1 0 0] CT
-15 27 moveto 
1 -1 scale
(10) t 
GR
GR
GS
[0.60015 0 0 0.60028 277.61218 279.18007] CT
0.149 GC
/Helvetica 26.667 F
GS
[1 0 0 1 0 0] CT
-15 27 moveto 
1 -1 scale
(15) t 
GR
GR
GS
[0.60015 0 0 0.60028 344.14308 279.18007] CT
0.149 GC
/Helvetica 26.667 F
GS
[1 0 0 1 0 0] CT
-15 27 moveto 
1 -1 scale
(20) t 
GR
GR
GS
[0.60015 0 0 0.60028 410.67396 279.18007] CT
0.149 GC
/Helvetica 26.667 F
GS
[1 0 0 1 0 0] CT
-15 27 moveto 
1 -1 scale
(25) t 
GR
GR
GS
[0.60015 0 0 0.60028 477.20488 279.18007] CT
0.149 GC
/Helvetica 26.667 F
GS
[1 0 0 1 0 0] CT
-15 27 moveto 
1 -1 scale
(30) t 
GR
GR
GS
[0.60015 0 0 0.60028 543.73576 279.18007] CT
0.149 GC
/Helvetica 26.667 F
GS
[1 0 0 1 0 0] CT
-15 27 moveto 
1 -1 scale
(35) t 
GR
GR
GS
[0.60015 0 0 0.60028 310.87784 299.78967] CT
0.149 GC
/Helvetica 29.333 F
GS
[1 0 0 1 0 0] CT
-52.5 30 moveto 
1 -1 scale
(Time [s]) t 
GR
GR
GS
[0.60015 0 0 0.60028 0 -0.34998] CT
0.149 GC
2 setlinecap
1 LJ
0.833 LW
N
130 457 M
130 40 L
S
GR
GS
[0 -0.60028 0.60015 0 72.81818 148.81931] CT
0.149 GC
/Helvetica 29.333 F
GS
[1 0 0 1 0 0] CT
-149.5 -7 moveto 
1 -1 scale
(Impedance  [arb. units]) t 
GR
GR
GS
[0.60015 0 0 0.60028 0 -0.34998] CT
1 LJ
3.333 LW
N
130 150.127 M
130.602 148.903 L
131.205 147.838 L
131.807 147.002 L
132.41 146.446 L
133.012 146.201 L
133.615 146.274 L
134.217 146.647 L
134.82 147.279 L
135.422 148.11 L
136.025 149.068 L
136.627 150.069 L
137.23 151.03 L
137.832 151.874 L
138.435 152.534 L
139.037 152.957 L
139.64 153.114 L
140.242 152.992 L
140.845 152.605 L
141.447 151.983 L
142.05 151.176 L
142.652 150.25 L
143.255 149.279 L
143.857 148.34 L
144.46 147.513 L
145.062 146.871 L
145.665 146.474 L
146.267 146.365 L
146.87 146.572 L
147.472 147.096 L
148.075 147.918 L
148.677 148.994 L
149.28 150.268 L
149.882 151.662 L
150.484 153.09 L
151.087 154.464 L
151.689 155.698 L
152.292 156.711 L
152.894 157.438 L
153.497 157.836 L
154.099 157.876 L
154.702 157.56 L
155.304 156.911 L
155.907 155.976 L
156.509 154.82 L
157.112 153.529 L
157.714 152.191 L
158.317 150.9 L
158.919 149.746 L
159.522 148.8 L
160.124 148.121 L
160.727 147.742 L
161.329 147.667 L
161.932 147.874 L
162.534 148.32 L
163.137 148.941 L
163.739 149.66 L
164.342 150.39 L
164.944 151.051 L
165.547 151.568 L
166.149 151.882 L
166.752 151.952 L
167.354 151.755 L
167.957 151.294 L
168.559 150.588 L
169.161 149.677 L
169.764 148.612 L
170.366 147.462 L
170.969 146.294 L
171.571 145.182 L
172.174 144.192 L
172.776 143.385 L
173.379 142.804 L
173.981 142.479 L
174.584 142.423 L
175.186 142.624 L
175.789 143.056 L
176.391 143.668 L
176.994 144.399 L
177.596 145.178 L
178.199 145.928 L
178.801 146.571 L
179.404 147.04 L
180.006 147.282 L
180.609 147.255 L
181.211 146.944 L
181.814 146.355 L
182.416 145.523 L
183.019 144.499 L
183.621 143.357 L
184.224 142.184 L
184.826 141.075 L
185.429 140.121 L
186.031 139.409 L
186.634 139.006 L
187.236 138.953 L
187.839 139.268 L
188.441 139.932 L
189.043 140.899 L
189.646 142.093 L
190.248 143.415 L
190.851 144.754 L
191.453 145.996 L
192.056 147.03 L
192.658 147.757 L
193.261 148.108 L
193.863 148.038 L
194.466 147.54 L
195.068 146.635 L
195.671 145.382 L
196.273 143.866 L
196.876 142.191 L
197.478 140.48 L
198.081 138.856 L
198.683 137.438 L
199.286 136.329 L
199.888 135.612 L
200.491 135.34 L
201.093 135.534 L
201.696 136.178 L
202.298 137.226 L
202.901 138.604 L
203.503 140.216 L
204.106 141.949 L
204.708 143.692 L
205.311 145.331 L
205.913 146.768 L
206.516 147.925 L
207.118 148.744 L
207.72 149.195 L
208.323 149.275 L
208.925 149.004 L
209.528 148.426 L
210.13 147.602 L
210.733 146.607 L
211.335 145.526 L
211.938 144.447 L
212.54 143.455 L
213.143 142.626 L
213.745 142.021 L
214.348 141.684 L
214.95 141.634 L
215.553 141.864 L
216.155 142.34 L
216.758 143.002 L
217.36 143.766 L
217.963 144.538 L
218.565 145.214 L
219.168 145.691 L
219.77 145.883 L
220.373 145.726 L
220.975 145.181 L
221.578 144.25 L
222.18 142.965 L
222.783 141.394 L
223.385 139.639 L
223.988 137.815 L
224.59 136.053 L
225.193 134.487 L
225.795 133.23 L
226.398 132.383 L
227 132.007 L
227.602 132.133 L
228.205 132.752 L
228.807 133.816 L
229.41 135.245 L
230.012 136.931 L
230.615 138.752 L
231.217 140.576 L
231.82 142.279 L
232.422 143.752 L
233.025 144.904 L
233.627 145.673 L
234.23 146.028 L
234.832 145.965 L
235.435 145.513 L
236.037 144.719 L
236.64 143.657 L
237.242 142.412 L
237.845 141.077 L
238.447 139.755 L
239.05 138.541 L
239.652 137.527 L
240.255 136.792 L
240.857 136.397 L
241.46 136.385 L
242.062 136.768 L
242.665 137.536 L
243.267 138.646 L
243.87 140.033 L
244.472 141.603 L
245.075 143.251 L
245.677 144.86 L
246.28 146.31 L
246.882 147.496 L
247.484 148.325 L
248.087 148.729 L
248.689 148.676 L
249.292 148.162 L
249.894 147.221 L
250.497 145.925 L
251.099 144.363 L
251.702 142.657 L
252.304 140.932 L
252.907 139.317 L
253.509 137.929 L
254.112 136.867 L
254.714 136.201 L
255.317 135.96 L
255.919 136.143 L
256.522 136.705 L
257.124 137.574 L
257.727 138.65 L
258.329 139.823 L
258.932 140.978 L
259.534 142.007 L
260.137 142.817 L
260.739 143.343 L
261.342 143.54 L
261.944 143.4 L
262.547 142.936 L
263.149 142.187 L
263.752 141.215 L
264.354 140.093 L
264.957 138.907 L
265.559 137.748 L
266.161 136.704 L
266.764 135.852 L
267.366 135.262 L
267.969 134.986 L
268.571 135.045 L
269.174 135.441 L
269.776 136.146 L
270.379 137.106 L
270.981 138.244 L
271.584 139.466 L
272.186 140.672 L
272.789 141.76 L
273.391 142.643 L
273.994 143.248 L
274.596 143.53 L
275.199 143.47 L
275.801 143.08 L
276.404 142.395 L
277.006 141.477 L
277.609 140.399 L
278.211 139.242 L
278.814 138.09 L
279.416 137.029 L
280.019 136.125 L
280.621 135.432 L
281.224 134.986 L
281.826 134.806 L
282.429 134.891 L
283.031 135.219 L
283.634 135.751 L
284.236 136.435 L
284.839 137.207 L
285.441 137.998 L
286.043 138.732 L
286.646 139.343 L
287.248 139.767 L
287.851 139.961 L
288.453 139.886 L
289.056 139.536 L
289.658 138.916 L
290.261 138.058 L
290.863 137.014 L
291.466 135.855 L
292.068 134.659 L
292.671 133.522 L
293.273 132.53 L
293.876 131.771 L
294.478 131.311 L
295.081 131.194 L
295.683 131.442 L
296.286 132.044 L
296.888 132.957 L
297.491 134.114 L
298.093 135.424 L
298.696 136.788 L
299.298 138.097 L
299.901 139.252 L
300.503 140.169 L
301.106 140.782 L
301.708 141.05 L
302.311 140.961 L
302.913 140.523 L
303.516 139.773 L
304.118 138.762 L
304.72 137.562 L
305.323 136.245 L
305.925 134.899 L
306.528 133.606 L
307.13 132.448 L
307.733 131.501 L
308.335 130.828 L
308.938 130.472 L
309.54 130.462 L
310.143 130.8 L
310.745 131.463 L
311.348 132.396 L
311.95 133.531 L
312.553 134.773 L
313.155 136.018 L
313.758 137.158 L
314.36 138.088 L
314.963 138.718 L
315.565 138.984 L
316.168 138.844 L
316.77 138.292 L
317.373 137.351 L
317.975 136.077 L
318.578 134.555 L
319.18 132.888 L
319.783 131.197 L
320.385 129.602 L
320.988 128.224 L
321.59 127.171 L
322.193 126.525 L
322.795 126.341 L
323.398 126.64 L
324 127.408 L
324.603 128.592 L
325.205 130.11 L
325.807 131.856 L
326.41 133.697 L
327.012 135.505 L
327.615 137.149 L
328.217 138.517 L
328.82 139.519 L
329.422 140.092 L
330.025 140.213 L
330.627 139.891 L
331.23 139.168 L
331.832 138.116 L
332.435 136.832 L
333.037 135.428 L
333.64 134.022 L
334.242 132.73 L
334.845 131.654 L
335.447 130.88 L
336.05 130.464 L
336.652 130.434 L
337.255 130.781 L
337.857 131.464 L
338.46 132.406 L
339.062 133.513 L
339.665 134.665 L
340.267 135.74 L
340.87 136.619 L
341.472 137.191 L
342.075 137.376 L
342.677 137.116 L
343.279 136.39 L
343.882 135.211 L
344.484 133.628 L
345.087 131.718 L
345.689 129.583 L
346.292 127.346 L
346.894 125.131 L
347.497 123.064 L
348.099 121.257 L
348.702 119.806 L
349.304 118.773 L
349.907 118.191 L
350.509 118.054 L
351.112 118.319 L
351.714 118.908 L
352.317 119.714 L
352.919 120.609 L
353.522 121.461 L
354.124 122.137 L
354.727 122.521 L
355.329 122.521 L
355.932 122.077 L
356.534 121.165 L
357.137 119.795 L
357.739 118.009 L
358.342 115.879 L
358.944 113.484 L
359.547 110.914 L
360.149 108.256 L
360.752 105.588 L
361.354 102.968 L
361.957 100.445 L
362.559 98.043 L
363.161 95.773 L
363.764 93.638 L
364.366 91.633 L
364.969 89.751 L
365.571 87.994 L
366.174 86.367 L
366.776 84.894 L
367.379 83.606 L
367.981 82.554 L
368.584 81.801 L
369.186 81.42 L
369.789 81.498 L
370.391 82.122 L
370.994 83.375 L
371.596 85.329 L
372.199 88.042 L
372.801 91.547 L
373.404 95.839 L
374.006 100.888 L
374.609 106.623 L
375.211 112.933 L
375.814 119.685 L
376.416 126.715 L
377.019 133.848 L
377.621 140.91 L
378.224 147.736 L
378.826 154.191 L
379.429 160.176 L
380.031 165.641 L
380.634 170.594 L
381.236 175.1 L
381.839 179.28 L
382.441 183.302 L
383.043 187.367 L
383.646 191.697 L
384.248 196.507 L
384.851 201.987 L
385.453 208.281 L
386.056 215.473 L
386.658 223.568 L
387.261 232.497 L
387.863 242.112 L
388.466 252.195 L
389.068 262.482 L
389.671 272.681 L
390.273 282.489 L
390.876 291.631 L
391.478 299.871 L
392.081 307.03 L
392.683 313.008 L
393.286 317.779 L
393.888 321.398 L
394.491 323.992 L
395.093 325.752 L
395.696 326.912 L
396.298 327.739 L
396.901 328.509 L
397.503 329.494 L
398.106 330.936 L
398.708 333.048 L
399.311 335.986 L
399.913 339.844 L
400.516 344.657 L
401.118 350.394 L
401.721 356.957 L
402.323 364.195 L
402.925 371.916 L
403.528 379.895 L
404.13 387.89 L
404.733 395.665 L
405.335 402.996 L
405.938 409.691 L
406.54 415.6 L
407.143 420.623 L
407.745 424.714 L
408.348 427.882 L
408.95 430.194 L
409.553 431.757 L
410.155 432.715 L
410.758 433.247 L
411.36 433.535 L
411.963 433.766 L
412.565 434.108 L
413.168 434.703 L
413.77 435.649 L
414.373 437.002 L
414.975 438.766 L
415.578 440.889 L
416.18 443.275 L
416.783 445.788 L
417.385 448.266 L
417.988 450.533 L
418.59 452.418 L
419.193 453.764 L
419.795 454.448 L
420.397 454.392 L
421 453.566 L
421.603 451.995 L
422.205 449.759 L
422.807 446.986 L
423.41 443.845 L
424.012 440.528 L
424.615 437.241 L
425.217 434.189 L
425.82 431.551 L
426.422 429.473 L
427.025 428.05 L
427.627 427.324 L
428.23 427.277 L
428.832 427.829 L
429.435 428.858 L
430.037 430.192 L
430.64 431.642 L
431.242 433.002 L
431.845 434.08 L
432.447 434.706 L
433.05 434.744 L
433.652 434.109 L
434.255 432.763 L
434.857 430.725 L
435.46 428.058 L
436.062 424.875 L
436.665 421.323 L
437.267 417.573 L
437.87 413.805 L
438.472 410.203 L
439.075 406.934 L
439.677 404.141 L
440.279 401.929 L
440.882 400.363 L
441.484 399.462 L
442.087 399.188 L
442.689 399.467 L
443.292 400.171 L
443.894 401.153 L
444.497 402.238 L
445.099 403.248 L
445.702 404.014 L
446.304 404.386 L
446.907 404.247 L
447.509 403.518 L
448.112 402.17 L
448.714 400.221 L
449.317 397.733 L
449.919 394.807 L
450.522 391.577 L
451.124 388.197 L
451.727 384.83 L
452.329 381.636 L
452.932 378.758 L
453.534 376.317 L
454.137 374.398 L
454.739 373.046 L
455.342 372.262 L
455.944 372.009 L
456.547 372.207 L
457.149 372.742 L
457.752 373.479 L
458.354 374.262 L
458.957 374.932 L
459.559 375.335 L
460.161 375.337 L
460.764 374.822 L
461.366 373.715 L
461.969 371.972 L
462.571 369.6 L
463.174 366.645 L
463.776 363.197 L
464.379 359.383 L
464.981 355.361 L
465.584 351.307 L
466.186 347.406 L
466.789 343.839 L
467.391 340.765 L
467.994 338.311 L
468.596 336.558 L
469.199 335.541 L
469.801 335.238 L
470.404 335.573 L
471.006 336.422 L
471.609 337.625 L
472.211 338.994 L
472.814 340.33 L
473.416 341.446 L
474.019 342.163 L
474.621 342.344 L
475.224 341.892 L
475.826 340.766 L
476.429 338.969 L
477.031 336.565 L
477.634 333.664 L
478.236 330.414 L
478.839 326.997 L
479.441 323.605 L
480.043 320.428 L
480.646 317.642 L
481.248 315.391 L
481.851 313.771 L
482.453 312.828 L
483.056 312.546 L
483.658 312.856 L
484.261 313.634 L
484.863 314.723 L
485.466 315.936 L
486.068 317.074 L
486.671 317.961 L
487.273 318.439 L
487.876 318.395 L
488.478 317.76 L
489.081 316.525 L
489.683 314.732 L
490.286 312.472 L
490.888 309.877 L
491.491 307.104 L
492.093 304.327 L
492.696 301.719 L
493.298 299.446 L
493.901 297.64 L
494.503 296.409 L
495.106 295.811 L
495.708 295.871 L
496.311 296.56 L
496.913 297.816 L
497.516 299.528 L
498.118 301.565 L
498.721 303.771 L
499.323 305.978 L
499.925 308.021 L
500.528 309.742 L
501.13 311.004 L
501.733 311.697 L
502.335 311.744 L
502.938 311.11 L
503.54 309.8 L
504.143 307.863 L
504.745 305.383 L
505.348 302.485 L
505.95 299.313 L
506.553 296.034 L
507.155 292.819 L
507.758 289.833 L
508.36 287.218 L
508.963 285.093 L
509.565 283.532 L
510.168 282.572 L
510.77 282.197 L
511.373 282.35 L
511.975 282.937 L
512.578 283.831 L
513.18 284.887 L
513.783 285.953 L
514.385 286.885 L
514.988 287.554 L
515.59 287.863 L
516.193 287.737 L
516.795 287.148 L
517.398 286.109 L
518 284.664 L
518.602 282.895 L
519.205 280.913 L
519.807 278.843 L
520.41 276.825 L
521.012 275.003 L
521.615 273.502 L
522.217 272.435 L
522.82 271.877 L
523.422 271.876 L
524.025 272.436 L
524.627 273.516 L
525.23 275.037 L
525.832 276.889 L
526.435 278.928 L
527.037 280.999 L
527.64 282.939 L
528.242 284.589 L
528.845 285.816 L
529.447 286.512 L
530.05 286.609 L
530.652 286.081 L
531.255 284.953 L
531.857 283.293 L
532.46 281.219 L
533.062 278.876 L
533.665 276.442 L
534.267 274.101 L
534.87 272.033 L
535.472 270.404 L
536.075 269.34 L
536.677 268.921 L
537.279 269.176 L
537.882 270.077 L
538.484 271.535 L
539.087 273.421 L
539.689 275.565 L
540.292 277.775 L
540.894 279.86 L
541.497 281.641 L
542.099 282.961 L
542.702 283.709 L
543.304 283.811 L
543.907 283.248 L
544.509 282.048 L
545.112 280.284 L
545.714 278.066 L
546.317 275.53 L
546.919 272.833 L
547.522 270.14 L
548.124 267.609 L
548.727 265.391 L
549.329 263.612 L
549.932 262.368 L
550.534 261.714 L
551.137 261.672 L
551.739 262.208 L
552.342 263.253 L
552.944 264.696 L
553.547 266.396 L
554.149 268.184 L
554.752 269.885 L
555.354 271.326 L
555.957 272.35 L
556.559 272.83 L
557.161 272.676 L
557.764 271.851 L
558.366 270.364 L
558.969 268.278 L
559.571 265.706 L
560.174 262.798 L
560.776 259.735 L
561.379 256.712 L
561.981 253.925 L
562.584 251.56 L
563.186 249.77 L
563.789 248.664 L
564.391 248.312 L
564.994 248.724 L
565.596 249.857 L
566.199 251.616 L
566.801 253.867 L
567.404 256.443 L
568.006 259.154 L
568.609 261.809 L
569.211 264.223 L
569.814 266.232 L
570.416 267.702 L
571.019 268.538 L
571.621 268.692 L
572.224 268.162 L
572.826 266.989 L
573.429 265.263 L
574.031 263.109 L
574.634 260.681 L
575.236 258.148 L
575.839 255.688 L
576.441 253.468 L
577.043 251.633 L
577.646 250.294 L
578.248 249.523 L
578.851 249.338 L
579.453 249.71 L
580.056 250.56 L
580.658 251.776 L
581.261 253.213 L
581.863 254.714 L
582.466 256.122 L
583.068 257.298 L
583.671 258.126 L
584.273 258.527 L
584.876 258.457 L
585.478 257.92 L
586.081 256.952 L
586.683 255.624 L
587.286 254.032 L
587.888 252.29 L
588.491 250.519 L
589.093 248.842 L
589.696 247.375 L
590.298 246.219 L
590.901 245.46 L
591.503 245.15 L
592.106 245.319 L
592.708 245.968 L
593.311 247.059 L
593.913 248.529 L
594.516 250.285 L
595.118 252.214 L
595.721 254.188 L
596.323 256.072 L
596.925 257.732 L
597.528 259.055 L
598.13 259.943 L
598.733 260.331 L
599.335 260.183 L
599.938 259.511 L
600.54 258.356 L
601.143 256.802 L
601.745 254.96 L
602.348 252.968 L
602.95 250.977 L
603.553 249.141 L
604.155 247.611 L
604.758 246.51 L
605.36 245.937 L
605.963 245.946 L
606.565 246.551 L
607.168 247.717 L
607.77 249.359 L
608.373 251.356 L
608.975 253.557 L
609.578 255.788 L
610.18 257.872 L
610.783 259.641 L
611.385 260.944 L
611.988 261.672 L
612.59 261.744 L
613.193 261.137 L
613.795 259.868 L
614.398 258.003 L
615 255.65 L
615.602 252.952 L
616.205 250.077 L
616.807 247.209 L
617.41 244.534 L
618.012 242.227 L
618.615 240.442 L
619.217 239.298 L
619.82 238.87 L
620.422 239.189 L
621.025 240.227 L
621.627 241.908 L
622.23 244.108 L
622.832 246.668 L
623.435 249.398 L
624.037 252.102 L
624.64 254.585 L
625.242 256.671 L
625.845 258.209 L
626.447 259.094 L
627.05 259.27 L
627.652 258.729 L
628.255 257.52 L
628.857 255.735 L
629.46 253.513 L
630.062 251.018 L
630.665 248.441 L
631.267 245.973 L
631.87 243.801 L
632.472 242.085 L
633.075 240.953 L
633.677 240.489 L
634.279 240.726 L
634.882 241.641 L
635.484 243.162 L
636.087 245.174 L
636.689 247.526 L
637.292 250.041 L
637.894 252.537 L
638.497 254.841 L
639.099 256.795 L
639.702 258.269 L
640.304 259.176 L
640.907 259.467 L
641.509 259.138 L
642.112 258.231 L
642.714 256.826 L
643.317 255.035 L
643.919 252.998 L
644.522 250.872 L
645.124 248.826 L
645.727 247.019 L
646.329 245.6 L
646.932 244.688 L
647.534 244.374 L
648.137 244.695 L
648.739 245.653 L
649.342 247.184 L
649.944 249.193 L
650.547 251.536 L
651.149 254.038 L
651.752 256.509 L
652.354 258.762 L
652.957 260.613 L
653.559 261.916 L
654.161 262.552 L
654.764 262.462 L
655.366 261.628 L
655.969 260.091 L
656.571 257.945 L
657.174 255.327 L
657.776 252.406 L
658.379 249.38 L
658.981 246.457 L
659.584 243.837 L
660.186 241.702 L
660.789 240.203 L
661.391 239.441 L
661.994 239.473 L
662.596 240.289 L
663.199 241.824 L
663.801 243.963 L
664.404 246.544 L
665.006 249.367 L
665.609 252.226 L
666.211 254.901 L
666.814 257.201 L
667.416 258.948 L
668.019 260.018 L
668.621 260.331 L
669.224 259.868 L
669.826 258.66 L
670.429 256.802 L
671.031 254.433 L
671.634 251.734 L
672.236 248.91 L
672.839 246.183 L
673.441 243.768 L
674.043 241.864 L
674.646 240.631 L
675.248 240.185 L
675.851 240.578 L
676.453 241.8 L
677.056 243.778 L
677.658 246.381 L
678.261 249.424 L
678.863 252.698 L
679.466 255.969 L
680.068 259.012 L
680.671 261.619 L
681.273 263.621 L
681.876 264.891 L
682.478 265.363 L
683.081 265.026 L
683.683 263.923 L
684.286 262.147 L
684.888 259.839 L
685.491 257.164 L
686.093 254.313 L
686.696 251.487 L
687.298 248.88 L
687.901 246.674 L
688.503 245.027 L
689.106 244.054 L
689.708 243.831 L
690.311 244.38 L
690.913 245.677 L
691.516 247.631 L
692.118 250.113 L
692.721 252.949 L
693.323 255.937 L
693.925 258.858 L
694.528 261.498 L
695.13 263.661 L
695.733 265.181 L
696.335 265.943 L
696.938 265.882 L
697.54 264.999 L
698.143 263.353 L
698.745 261.062 L
699.348 258.292 L
699.95 255.245 L
700.553 252.146 L
701.155 249.219 L
701.758 246.684 L
702.36 244.726 L
702.963 243.49 L
703.565 243.062 L
704.168 243.482 L
704.77 244.718 L
705.373 246.679 L
705.975 249.225 L
706.578 252.181 L
707.18 255.34 L
707.783 258.484 L
708.385 261.402 L
708.988 263.901 L
709.59 265.819 L
710.193 267.033 L
710.795 267.476 L
711.398 267.129 L
712 266.024 L
712.602 264.251 L
713.205 261.937 L
713.807 259.251 L
714.41 256.383 L
715.012 253.532 L
715.615 250.897 L
716.217 248.659 L
716.82 246.962 L
717.422 245.908 L
718.025 245.549 L
718.627 245.88 L
719.23 246.839 L
719.832 248.312 L
720.435 250.147 L
721.037 252.16 L
721.64 254.155 L
722.242 255.937 L
722.845 257.333 L
723.447 258.195 L
724.05 258.415 L
724.652 257.94 L
725.255 256.764 L
725.857 254.934 L
726.46 252.545 L
727.062 249.73 L
727.665 246.659 L
728.267 243.519 L
728.87 240.505 L
729.472 237.809 L
730.075 235.606 L
730.677 234.034 L
731.279 233.195 L
731.882 233.137 L
732.484 233.862 L
733.087 235.309 L
733.689 237.375 L
734.292 239.911 L
734.894 242.736 L
735.497 245.651 L
736.099 248.451 L
736.702 250.949 L
737.304 252.972 L
737.907 254.389 L
738.509 255.112 L
739.112 255.1 L
739.714 254.366 L
740.317 252.974 L
740.919 251.037 L
741.522 248.709 L
742.124 246.17 L
742.727 243.622 L
743.329 241.269 L
743.932 239.308 L
744.534 237.906 L
745.137 237.19 L
745.739 237.244 L
746.342 238.088 L
746.944 239.681 L
747.547 241.927 L
748.149 244.672 L
748.752 247.727 L
749.354 250.872 L
749.957 253.88 L
750.559 256.535 L
751.161 258.639 L
751.764 260.032 L
752.366 260.612 L
752.969 260.331 L
753.571 259.199 L
754.174 257.288 L
754.776 254.726 L
755.379 251.689 L
755.981 248.39 L
756.584 245.061 L
757.186 241.948 L
757.789 239.284 L
758.391 237.273 L
758.994 236.081 L
759.596 235.814 L
760.199 236.515 L
760.801 238.153 L
761.404 240.628 L
762.006 243.772 L
762.609 247.366 L
763.211 251.146 L
763.814 254.839 L
764.416 258.172 L
765.019 260.897 L
765.621 262.807 L
766.224 263.757 L
766.826 263.673 L
767.429 262.553 L
768.031 260.471 L
768.634 257.567 L
769.236 254.044 L
769.839 250.139 L
770.441 246.122 L
771.043 242.266 L
771.646 238.831 L
772.248 236.047 L
772.851 234.094 L
773.453 233.098 L
774.056 233.112 L
774.658 234.121 L
775.261 236.042 L
775.863 238.732 L
776.466 241.997 L
777.068 245.61 L
777.671 249.325 L
778.273 252.899 L
778.876 256.104 L
779.478 258.744 L
780.081 260.659 L
780.683 261.744 L
781.286 261.944 L
781.888 261.261 L
782.491 259.747 L
783.093 257.504 L
783.696 254.678 L
784.298 251.442 L
784.901 248.003 L
785.503 244.575 L
786.106 241.369 L
786.708 238.584 L
787.311 236.391 L
787.913 234.915 L
788.516 234.233 L
789.118 234.358 L
789.721 235.249 L
790.323 236.796 L
790.925 238.849 L
791.528 241.215 L
792.13 243.681 L
792.733 246.028 L
793.335 248.053 L
793.938 249.578 L
794.54 250.474 L
795.143 250.655 L
795.745 250.097 L
796.348 248.829 L
796.95 246.937 L
797.553 244.551 L
798.155 241.839 L
798.758 238.998 L
799.36 236.229 L
799.963 233.742 L
800.565 231.725 L
801.168 230.335 L
801.77 229.689 L
802.373 229.852 L
802.975 230.834 L
803.578 232.586 L
804.18 234.999 L
804.783 237.918 L
805.385 241.15 L
805.988 244.48 L
806.59 247.686 L
807.193 250.552 L
807.795 252.892 L
808.398 254.557 L
809 255.447 L
809.602 255.518 L
810.205 254.785 L
810.807 253.317 L
811.41 251.236 L
812.012 248.71 L
812.615 245.933 L
813.217 243.115 L
813.82 240.472 L
814.422 238.206 L
815.025 236.489 L
815.627 235.45 L
816.23 235.17 L
816.832 235.669 L
817.435 236.912 L
818.037 238.804 L
818.64 241.196 L
819.242 243.907 L
819.845 246.725 L
820.447 249.433 L
821.05 251.816 L
821.652 253.682 L
822.255 254.873 L
822.857 255.276 L
823.46 254.833 L
824.062 253.542 L
824.665 251.458 L
825.267 248.688 L
825.87 245.396 L
826.472 241.781 L
827.075 238.065 L
827.677 234.493 L
828.279 231.301 L
828.882 228.708 L
829.484 226.897 L
830.087 225.997 L
830.689 226.082 L
831.292 227.153 L
831.894 229.144 L
832.497 231.92 L
833.099 235.289 L
833.702 239.02 L
834.304 242.853 L
834.907 246.528 L
835.509 249.798 L
836.112 252.448 L
836.714 254.309 L
837.317 255.274 L
837.919 255.301 L
838.522 254.409 L
839.124 252.686 L
839.727 250.276 L
840.329 247.365 L
840.932 244.175 L
841.534 240.946 L
842.137 237.921 L
842.739 235.33 L
843.342 233.37 L
843.944 232.196 L
844.547 231.9 L
845.149 232.517 L
845.752 234.007 L
846.354 236.264 L
846.957 239.122 L
847.559 242.367 L
848.161 245.753 L
848.764 249.026 L
849.366 251.939 L
849.969 254.277 L
850.571 255.866 L
851.174 256.597 L
851.776 256.418 L
852.379 255.349 L
852.981 253.469 L
853.584 250.915 L
854.186 247.864 L
854.789 244.52 L
855.391 241.102 L
855.994 237.83 L
856.596 234.91 L
857.199 232.525 L
857.801 230.815 L
858.404 229.881 L
859.006 229.773 L
859.609 230.488 L
860.211 231.963 L
860.814 234.087 L
861.416 236.702 L
862.019 239.612 L
862.621 242.596 L
863.224 245.424 L
863.826 247.871 L
864.429 249.736 L
865.031 250.858 L
865.634 251.128 L
866.236 250.5 L
866.839 248.991 L
867.441 246.691 L
868.043 243.747 L
868.646 240.355 L
869.248 236.748 L
869.851 233.179 L
870.453 229.895 L
871.056 227.122 L
871.658 225.049 L
872.261 223.808 L
872.863 223.47 L
873.466 224.036 L
874.068 225.439 L
874.671 227.555 L
875.273 230.205 L
875.876 233.178 L
876.478 236.246 L
877.081 239.183 L
877.683 241.777 L
878.286 243.853 L
878.888 245.282 L
879.491 245.983 L
880.093 245.93 L
880.696 245.152 L
881.298 243.728 L
881.901 241.778 L
882.503 239.454 L
883.106 236.925 L
883.708 234.38 L
884.311 231.997 L
884.913 229.943 L
885.516 228.371 L
886.118 227.392 L
886.721 227.085 L
887.323 227.481 L
887.925 228.569 L
888.528 230.288 L
889.13 232.528 L
889.733 235.146 L
890.335 237.97 L
890.938 240.806 L
891.54 243.457 L
892.143 245.734 L
892.745 247.469 L
893.348 248.523 L
893.95 248.804 L
894.553 248.265 L
895.155 246.909 L
895.758 244.795 L
896.36 242.026 L
896.963 238.753 L
897.565 235.165 L
898.168 231.473 L
898.77 227.909 L
899.373 224.707 L
899.975 222.085 L
900.578 220.232 L
901.18 219.29 L
901.783 219.351 L
902.385 220.433 L
902.988 222.482 L
903.59 225.37 L
904.193 228.904 L
904.795 232.839 L
905.398 236.892 L
906 240.772 L
906.092 241.297 L
S
GR
%%Trailer
%%Pages: 1
%%EOF
